%YAML 1.1
%TAG !u! tag:unity3d.com,2011:
--- !u!114 &11400000
MonoBehaviour:
  m_ObjectHideFlags: 0
  m_PrefabParentObject: {fileID: 0}
  m_PrefabInternal: {fileID: 0}
  m_GameObject: {fileID: 0}
  m_Enabled: 1
  m_EditorHideFlags: 0
  m_Script: {fileID: 11500000, guid: 75f88eea1987a2645a8bf1405387e49b, type: 3}
  m_Name: DeadGrass
  m_EditorClassIdentifier: 
  m_AssignedValue: 2
  m_MovementDifficulty: 1
  m_Material: {fileID: 2100000, guid: 6f9522fd2f1e374429a977f4e0625089, type: 2}
